^C:\Users\Zachery\Desktop\Neumont Work\Q4\Engine Class\ZAnderson_Engine\Engine\Engine\Engine.vcxproj
C:\Users\Zachery\Desktop\Neumont Work\Q4\Engine Class\ZAnderson_Engine\Engine\Debug\Engine.lib
C:\Users\Zachery\Desktop\Neumont Work\Q4\Engine Class\ZAnderson_Engine\Engine\Debug\Engine.exp
