^C:\USERS\ZACHERY\DESKTOP\NEUMONT WORK\Q4\ENGINE CLASS\ZANDERSON_ENGINE\WHATEVERTHENAMEOFTHEGAMEIS\GAMEYTHINGY.CPP|C:\USERS\ZACHERY\DESKTOP\NEUMONT WORK\Q4\ENGINE CLASS\ZANDERSON_ENGINE\WHATEVERTHENAMEOFTHEGAMEIS\MAIN.CPP
C:\USERS\ZACHERY\DESKTOP\NEUMONT WORK\Q4\ENGINE CLASS\ZANDERSON_ENGINE\WHATEVERTHENAMEOFTHEGAMEIS\RELEASE\VC141.PDB
C:\USERS\ZACHERY\DESKTOP\NEUMONT WORK\Q4\ENGINE CLASS\ZANDERSON_ENGINE\WHATEVERTHENAMEOFTHEGAMEIS\RELEASE\MAIN.OBJ
C:\USERS\ZACHERY\DESKTOP\NEUMONT WORK\Q4\ENGINE CLASS\ZANDERSON_ENGINE\WHATEVERTHENAMEOFTHEGAMEIS\RELEASE\GAMEYTHINGY.OBJ
^C:\USERS\ZACHERY\DESKTOP\NEUMONT WORK\Q4\ENGINE CLASS\ZANDERSON_ENGINE\WHATEVERTHENAMEOFTHEGAMEIS\GAMEYTHINGY.CPP
C:\USERS\ZACHERY\DESKTOP\NEUMONT WORK\Q4\ENGINE CLASS\ZANDERSON_ENGINE\WHATEVERTHENAMEOFTHEGAMEIS\RELEASE\VC141.PDB
^C:\USERS\ZACHERY\DESKTOP\NEUMONT WORK\Q4\ENGINE CLASS\ZANDERSON_ENGINE\WHATEVERTHENAMEOFTHEGAMEIS\MAIN.CPP
C:\USERS\ZACHERY\DESKTOP\NEUMONT WORK\Q4\ENGINE CLASS\ZANDERSON_ENGINE\WHATEVERTHENAMEOFTHEGAMEIS\RELEASE\VC141.PDB
